%YAML 1.1
%TAG !u! tag:unity3d.com,2011:
--- !u!114 &11400000
MonoBehaviour:
  m_ObjectHideFlags: 0
  m_CorrespondingSourceObject: {fileID: 0}
  m_PrefabInstance: {fileID: 0}
  m_PrefabAsset: {fileID: 0}
  m_GameObject: {fileID: 0}
  m_Enabled: 1
  m_EditorHideFlags: 0
  m_Script: {fileID: 11500000, guid: d30d8c2ad3eaed8429d6a8c077b42013, type: 3}
  m_Name: Potion
  m_EditorClassIdentifier: 
  prefab: {fileID: 696083632182878145, guid: 8448e0e118bc4994ea5b8859071fc6d0, type: 3}
  type: 1
  weight: 0
  description: Restores 10 HP.
  healthRestoreValue: 10
